F
F
F
F
F
F
D+
F
F
F
F
F
F
F
F
F
F
F
F
F
F
F
F
F
F
F
F
F
F
F
F
F
F
D-
F
F
F
F
F
F
F
F
D+
F
F
F
F
F
F
F
F
F
F
F
F
F
F
F
F
F
F
D-
F
F
F
F
F
D+
F
F
F
F
F
F
F
F
F
F
F
F
F
F
F
F
F
F
F
F
F
F
F
F
F
F
F
F
F
F
D+
F
F
D+
F
F
F
F
D+
F
C+
D-
D+
A-
C-
D-
D+
F
D+
C-
D+
C
D
F
C
D+
F
D-
D+
C-
C+
D+
F
D+
D+
C+
D-
F
D+
F
B-
F
F
C
B-
F
D+
F
D+
F
B-
D-
C
F
F
D+
C
F
A-
D+
C-
D+
D+
D+
D-
F
F
F
D+
F
C
F
F
F
D-
F
B
F
F
D+
D+
D-
D+
D+
D+
F
F
B-
D+
F
C-
F
D-
B+
F
D-
D+
D+
B+
F
C+
D+
C-
C-
F
F
D-
F
F
D+
D-
D-
C-
D+
D+
D-
B+
D+
F
D+
F
